{
	"stationIds": ["f912131d-33f3-49f4-9d9f-89f28690471d"],
	"optionalEquipment": {
		"id": "4a3f684b-4253-478c-943d-c3b4cd0911cf",
		"name": "Tom Tom 321",
		"integratedEquipmentId": 9,
		"price": 537,
		"priceTypeId": 2,
		"maxPrice": 969,
		"version": 1
	}
}
