{
	"id": "ef232f60-f718-4c20-bb42-883c73d21342",
	"name": "Max",
	"surname": "Mustermann",
	"username": "Testuser42",
	"email": "testmail@test.de",
	"street": "Hamburger Straße",
	"streetNumber": "12a",
	"postalCode": "22045",
	"city": "Hamburg",
	"country": "Deutschland",
	"birthday": "2018-11-13",
	"mobilePhone": "+4917412343221",
	"phone": "040/1343232"	
}